{
  "properties": {
    "id": {
      "type": "long"
    },
    "title": {
      "type": "text"
    },
    "author": {
      "properties": {
        "id": {
          "type": "long"
        },
        "name": {
          "type": "text"
        },
        "login": {
          "type": "text"
        },
        "avatar": {
          "type": "text"
        }
      }
    },
    "created_at": {
      "type": "date"
    },
    "updated_at": {
      "type": "date"
    },
    "is_expired": {
      "type": "long"
    },
    "is_blocked": {
      "type": "long"
    },
    "expire_at": {
      "type": "date"
    },
    "time_limit": {
      "type": "long"
    },
    "answers": {
      "type": "nested"
    },
    "image": {
      "type": "text"
    },
    "audio": {
      "type": "text"
    },
    "video": {
      "type": "text"
    }
  }
}